^C:\USERS\PABLO\SKYDRIVE\UNIVERSIDAD\INGENIERIA DEL SOFTWARE\TERRYAROUNDTHEWORLD\TERRY\COCOS2D\COCOS\AUDIO\PROJ.WIN32\DEBUG.WIN32\MCIPLAYER.OBJ|C:\USERS\PABLO\SKYDRIVE\UNIVERSIDAD\INGENIERIA DEL SOFTWARE\TERRYAROUNDTHEWORLD\TERRY\COCOS2D\COCOS\AUDIO\PROJ.WIN32\DEBUG.WIN32\SIMPLEAUDIOENGINE.OBJ
C:\WINDOWS\SYSTEM32\TZRES.DLL
C:\USERS\PABLO\SKYDRIVE\UNIVERSIDAD\INGENIERIA DEL SOFTWARE\TERRYAROUNDTHEWORLD\TERRY\COCOS2D\COCOS\AUDIO\PROJ.WIN32\DEBUG.WIN32\MCIPLAYER.OBJ
C:\USERS\PABLO\SKYDRIVE\UNIVERSIDAD\INGENIERIA DEL SOFTWARE\TERRYAROUNDTHEWORLD\TERRY\COCOS2D\COCOS\AUDIO\PROJ.WIN32\DEBUG.WIN32\SIMPLEAUDIOENGINE.OBJ
C:\WINDOWS\GLOBALIZATION\SORTING\SORTDEFAULT.NLS
